{
  "SelectKPIs": {
    "action": "sliceDataset",
    "parameters": {
      "mode": "select",
      "source": "OneRowPerAccount",
      "fields": [
        {
          "name": "LastEmailClickDate"
        },
        {
          "name": "LastEmailOpenDate"
        },
        {
          "name": "AccountId"
        }
      ]
    }
  },
  "ExtractEmailClick": {
    "action": "digest",
    "parameters": {
      "connectionName": "EA_MC_Integration",
      "fields": [
        {
          "name": "Domain"
        },
        {
          "name": "EventDate"
        },
        {
          "name": "SubscriberKey"
        },
        {
          "name": "EventDate_UTC"
        }
      ],
      "object": "Ungrouped__Click_510000546"
    }
  },
  "JoinOpenClick": {
    "action": "augment",
    "parameters": {
      "right_key": [
        "SubscriberKey"
      ],
      "left": "ExtractEmailOpen",
      "left_key": [
        "SubscriberKey"
      ],
      "right_select": [
        "Domain",
        "EventDate",
        "SubscriberKey",
        "EventDate_UTC"
      ],
      "right": "ExtractEmailClick",
      "relationship": "Click",
      "operation": "LookupSingleValue"
    }
  },
  "tmp_RegisterEmailOpenClick": {
    "action": "sfdcRegister",
    "parameters": {
      "name": "tmp_RegisterEmailOpenClick",
      "alias": "tmp_RegisterEmailOpenClick",
      "source": "ComputeLastEmailClickDate"
    }
  },
  "ExtractEmailOpen": {
    "action": "digest",
    "parameters": {
      "connectionName": "EA_MC_Integration",
      "fields": [
        {
          "name": "SubscriberKey"
        },
        {
          "name": "Domain"
        },
        {
          "name": "EventDate"
        },
        {
          "name": "EventDate_UTC"
        }
      ],
      "object": "Ungrouped__Open_510000546"
    }
  },
  "OneRowPerAccount": {
    "action": "filter",
    "parameters": {
      "source": "GroupByAccount",
      "saqlFilter": "'Index' == 0"
    }
  },
  "ComputeLastEmailOpenDate": {
    "action": "computeRelative",
    "parameters": {
      "partitionBy": [
        "SubscriberKey"
      ],
      "orderBy": [
        {
          "name": "EventDate_UTC",
          "direction": "desc"
        }
      ],
      "source": "JoinOpenClick",
      "computedFields": [
        {
          "expression": {
            "sourceField": "EventDate_UTC",
            "offset": "first()"
          },
          "name": "LastEmailOpenDate",
          "label": "LastEmailOpenDate"
        }
      ]
    }
  },
  "RegisterEmail": {
    "action": "sfdcRegister",
    "parameters": {
      "name": "RegisterEmail",
      "alias": "RegisterEmail",
      "source": "SelectKPIs"
    }
  },
  "ComputeLastEmailClickDate": {
    "action": "computeRelative",
    "parameters": {
      "partitionBy": [
        "Click.SubscriberKey"
      ],
      "orderBy": [
        {
          "name": "Click.EventDate_UTC",
          "direction": "desc"
        }
      ],
      "source": "ComputeLastEmailOpenDate",
      "computedFields": [
        {
          "expression": {
            "sourceField": "Click.EventDate_UTC",
            "offset": "first()"
          },
          "name": "LastEmailClickDate",
          "label": "LastEmailClickDate"
        }
      ]
    }
  },
  "GroupByAccount": {
    "action": "computeRelative",
    "parameters": {
      "partitionBy": [
        "SubscriberKey"
      ],
      "orderBy": [
        {
          "name": "EventDate_UTC",
          "direction": "desc"
        }
      ],
      "source": "ComputeLastEmailClickDate",
      "computedFields": [
        {
          "expression": {
            "default": "0",
            "saqlExpression": "previous('Index') + 1",
            "type": "Numeric"
          },
          "name": "Index",
          "label": "Index"
        },
        {
          "expression": {
            "saqlExpression": "'SubscriberKey'",
            "type": "Numeric"
          },
          "name": "AccountId",
          "label": "AccountId"
        }
      ]
    }
  }
}