{
  "ExtractCampaignMember": {
    "action": "sfdcDigest",
    "parameters": {
      "fields": [
        {
          "name": "CampaignId"
        },
        {
          "name": "ContactId"
        },
        {
          "name": "CreatedDate"
        },
        {
          "name": "Description"
        },
        {
          "name": "FirstName"
        },
        {
          "name": "Id"
        },
        {
          "name": "LastName"
        },
        {
          "name": "LeadId"
        },
        {
          "name": "LeadOrContactId"
        }
      ],
      "object": "CampaignMember"
    }
  },
  "SelectAttributes": {
    "action": "sliceDataset",
    "parameters": {
      "mode": "select",
      "source": "RenameKPIs",
      "fields": [
        {
          "name": "AccountId"
        },
        {
          "name": "NumberOfCampaigns"
        }
      ]
    }
  },
  "ExtractAccount": {
    "action": "sfdcDigest",
    "parameters": {
      "fields": [
        {
          "name": "Id"
        },
        {
          "name": "RecordTypeId"
        },
        {
          "name": "PersonContactId"
        }
      ],
      "object": "Account"
    }
  },
  "AggregateNumberOfCampaigns": {
    "action": "augment",
    "parameters": {
      "right_key": [
        "ContactId"
      ],
      "left": "FilterPersonAccount",
      "left_key": [
        "PersonContactId"
      ],
      "right_select": [
        "isJoinCampaignWithinYear"
      ],
      "right": "FlagCampaignsJoinedWithinYear",
      "relationship": "Campaign",
      "operation": "LookupMultiValue"
    }
  },
  "ExtractCampaign": {
    "action": "sfdcDigest",
    "parameters": {
      "fields": [
        {
          "name": "CampaignMemberRecordTypeId"
        },
        {
          "name": "CreatedById"
        },
        {
          "name": "CreatedDate"
        },
        {
          "name": "Description"
        },
        {
          "name": "EndDate"
        },
        {
          "name": "Id"
        },
        {
          "name": "IsActive"
        },
        {
          "name": "IsDeleted"
        },
        {
          "name": "LastModifiedDate"
        },
        {
          "name": "Name"
        },
        {
          "name": "NumberOfContacts"
        },
        {
          "name": "NumberOfLeads"
        },
        {
          "name": "ParentId"
        },
        {
          "name": "RecordTypeId"
        },
        {
          "name": "StartDate"
        },
        {
          "name": "Status"
        },
        {
          "name": "Type"
        }
      ],
      "object": "Campaign"
    }
  },
  "FilterPersonAccount": {
    "action": "filter",
    "parameters": {
      "source": "ExtractAccount",
      "saqlFilter": "('RecordTypeId' == \"0123X0000003o6DQAQ\")"
    }
  },
  "JoinCampaignCampaignMember": {
    "action": "augment",
    "parameters": {
      "right_key": [
        "Id"
      ],
      "left": "ExtractCampaignMember",
      "left_key": [
        "CampaignId"
      ],
      "right_select": [
        "CreatedDate",
        "IsActive",
        "IsDeleted",
        "EndDate",
        "StartDate",
        "Status",
        "Type"
      ],
      "right": "ExtractCampaign",
      "relationship": "Campaign",
      "operation": "LookupSingleValue"
    }
  },
  "RegisterCampaign": {
    "action": "sfdcRegister",
    "parameters": {
      "name": "RegisterCampaign",
      "alias": "RegisterCampaign",
      "source": "SelectAttributes"
    }
  },
  "RenameKPIs": {
    "action": "computeExpression",
    "parameters": {
      "source": "AggregateNumberOfCampaigns",
      "mergeWithSource": true,
      "computedFields": [
        {
          "defaultValue": "0",
          "precision": 18,
          "name": "NumberOfCampaigns",
          "saqlExpression": "'Campaign.isJoinCampaignWithinYear'",
          "scale": 5,
          "label": "NumberOfCampaigns",
          "type": "Numeric"
        },
        {
          "name": "AccountId",
          "saqlExpression": "'Id'",
          "label": "AccountId",
          "type": "Text"
        }
      ]
    }
  },
  "FlagCampaignsJoinedWithinYear": {
    "action": "computeExpression",
    "parameters": {
      "source": "JoinCampaignCampaignMember",
      "mergeWithSource": true,
      "computedFields": [
        {
          "defaultValue": "0",
          "precision": 18,
          "name": "isJoinCampaignWithinYear",
          "saqlExpression": "case \nwhen date_diff(\"day\", toDate('CreatedDate_sec_epoch'), now()) <= 365 then 1\nelse 0\nend ",
          "scale": 5,
          "label": "isJoinCampaignWithinYear",
          "type": "Numeric"
        }
      ]
    }
  }
}