{
  "JoinContactWithCampaignMember": {
    "action": "augment",
    "parameters": {
      "right_key": [
        "Id"
      ],
      "left": "JoinDoorNameWithCampaignMember",
      "left_key": [
        "ContactId"
      ],
      "right_select": [
        "LastPurchaseDate__c",
        "AccountId",
        "Id",
        "DedicatedBA__c",
        "CollectionTypo__c",
        "KPI.LuxuryCollectionShare",
        "RecordTypeId",
        "BAIdSuccessFactors__c",
        "Name",
        "BA.Name",
        "KPI.AccountWithOrders.PickOne.FirstPurchaseDate",
        "FirstPurchaseDate"
      ],
      "right": "ComputeDerivedKPIs",
      "relationship": "Contact",
      "operation": "LookupSingleValue"
    }
  },
  "JoinBANameWithContacts": {
    "action": "augment",
    "parameters": {
      "right_key": [
        "BAIdSuccessFactors__c"
      ],
      "left": "JoinKPIsWithContacts",
      "left_key": [
        "DedicatedBA__c"
      ],
      "right_select": [
        "Name"
      ],
      "right": "FilterBAsOnly",
      "relationship": "BA",
      "operation": "LookupSingleValue"
    }
  },
  "FilterRitualProgramOnly": {
    "action": "filter",
    "parameters": {
      "source": "FlagRitualProgam",
      "saqlFilter": "'isRitualProgram' == \"true\""
    }
  },
  "JoinInteractionCountsWithCampaignMember": {
    "action": "augment",
    "parameters": {
      "right_key": [
        "AccountId__c"
      ],
      "left": "JoinContactWithCampaignMember",
      "left_key": [
        "Contact.AccountId"
      ],
      "right_select": [
        "CampaignInteraction",
        "CM.Campaign.ParentId",
        "CM.Campaign.Name",
        "CM.isRitualProgram",
        "DoorIDSyreta__c",
        "CM.Door.Country__c"
      ],
      "right": "ComputeCampaignInteractions",
      "relationship": "Interaction",
      "operation": "LookupMultiValue"
    }
  },
  "JoinDoorNameWithCampaignMember": {
    "action": "augment",
    "parameters": {
      "right_key": [
        "DoorIdSyreta__c"
      ],
      "left": "FilterRitualProgramOnly",
      "left_key": [
        "CampaignDoor__c"
      ],
      "right_select": [
        "Name",
        "Country__c"
      ],
      "right": "FilterDoorsOnly",
      "relationship": "Door",
      "operation": "LookupSingleValue"
    }
  },
  "FilterDoorsOnly": {
    "action": "filter",
    "parameters": {
      "source": "GetAccount",
      "saqlFilter": "('RecordTypeId' == \"0123O0000003sOxQAI\") || ('RecordTypeId' == \"0123X00000049MfQAI\")"
    }
  },
  "GetCampaign": {
    "action": "sfdcDigest",
    "parameters": {
      "fields": [
        {
          "name": "ParentId"
        },
        {
          "name": "CampaignId__c"
        },
        {
          "name": "Id"
        },
        {
          "name": "Name"
        }
      ],
      "object": "Campaign"
    }
  },
  "FlagRitualProgam": {
    "action": "computeExpression",
    "parameters": {
      "source": "JoinCampaignWithCampaignMember",
      "mergeWithSource": true,
      "computedFields": [
        {
          "name": "isRitualProgram",
          "saqlExpression": "case \nwhen 'Campaign.ParentId' == \"7013O0000007MBYQA2\" ||  'Campaign.ParentId' == \"7013X000001KxypQAC\" then \"true\"\nelse \"false\"\nend",
          "label": "isRitualProgram",
          "type": "Text"
        }
      ]
    }
  },
  "GetOrders": {
    "action": "edgemart",
    "parameters": {
      "alias": "RegisterOrder"
    }
  },
  "ClassifyOrders": {
    "action": "computeExpression",
    "parameters": {
      "source": "JoinCampaignDoorToOrders",
      "mergeWithSource": true,
      "computedFields": [
        {
          "defaultValue": "0",
          "precision": 18,
          "name": "isCampaignDoor",
          "saqlExpression": "case when\n'Campaign.CampaignDoor__c' == 'DoorIdSyreta__c' then \"true\"\nelse \"false\"\nend",
          "label": "isCampaignDoor",
          "type": "Text"
        },
        {
          "name": "isCampaignPurchase",
          "saqlExpression": "case when \ndate_diff(\"day\", toDate('EffectiveDate_sec_epoch'), toDate('Campaign.ExpiryDate__c_sec_epoch')) >= 0 &&\ndate_diff(\"day\", toDate('Campaign.CreatedDate_sec_epoch'), toDate('EffectiveDate_sec_epoch')) >= 0 &&\n'Transaction.Purchase' > 0\nthen \"true\"\nelse \"false\"\nend",
          "label": "isCampaignPurchase",
          "type": "Text"
        },
        {
          "name": "isRunupPurchase",
          "saqlExpression": "case when \ndate_diff(\"day\", toDate('EffectiveDate_sec_epoch'), toDate('Campaign.CreatedDate_sec_epoch')) > 0 &&\ndate_diff(\"day\", toDate('EffectiveDate_sec_epoch'), toDate('Campaign.CreatedDate_sec_epoch')) <= 182 &&\n'Transaction.Purchase' > 0\nthen \"true\"\nelse \"false\"\nend",
          "label": "isRunupPurchase",
          "type": "Text"
        },
        {
          "defaultValue": "0",
          "precision": 18,
          "saqlExpression": "case\nwhen 'isCampaignDoor' == \"true\" && 'isCampaignPurchase' == \"true\" then\n'Transaction.ClientSpending'\nelse 0\nend",
          "name": "CampaignDoorSpending",
          "scale": 5,
          "label": "CampaignDoorSpending",
          "type": "Numeric"
        },
        {
          "defaultValue": "0",
          "precision": 18,
          "name": "CampaignDoorFrequency",
          "saqlExpression": "case\nwhen 'isCampaignDoor' == \"true\" && 'isCampaignPurchase' == \"true\" && 'Transaction.Purchase' > 0 then\n1\nelse 0\nend\n",
          "scale": 5,
          "label": "CampaignDoorFrequency",
          "type": "Numeric"
        },
        {
          "defaultValue": "0",
          "precision": 18,
          "name": "RunupSpending",
          "saqlExpression": "case\nwhen 'isRunupPurchase' == \"true\" then\n'Transaction.ClientSpending'\nelse 0\nend",
          "scale": 5,
          "label": "RunupSpending",
          "type": "Numeric"
        },
        {
          "defaultValue": "0",
          "precision": 18,
          "name": "AAQty",
          "saqlExpression": "case when 'isCampaignPurchase' == \"true\" then 'OrderLevel.AAQty' else 0 end",
          "scale": 5,
          "label": "AAQty",
          "type": "Numeric"
        },
        {
          "defaultValue": "0",
          "precision": 18,
          "name": "CleansersQty",
          "saqlExpression": "case when 'isCampaignPurchase' == \"true\" then 'OrderLevel.CleansersQty' else 0 end",
          "scale": 5,
          "label": "CleansersQty",
          "type": "Numeric"
        },
        {
          "defaultValue": "0",
          "precision": 18,
          "name": "OtherCollectionQty",
          "saqlExpression": "case when 'isCampaignPurchase' == \"true\" then 'OrderLevel.OtherCollectionQty' else 0 end",
          "scale": 5,
          "label": "OtherCollectionQty",
          "type": "Numeric"
        },
        {
          "defaultValue": "0",
          "precision": 18,
          "name": "PlatinumQty",
          "saqlExpression": "case when 'isCampaignPurchase' == \"true\" then 'OrderLevel.PlatinumQty' else 0 end",
          "scale": 5,
          "label": "PlatinumQty",
          "type": "Numeric"
        },
        {
          "defaultValue": "0",
          "precision": 18,
          "name": "RadianceQty",
          "saqlExpression": "case when 'isCampaignPurchase' == \"true\" then 'OrderLevel.RadianceQty' else 0 end",
          "scale": 5,
          "label": "RadianceQty",
          "type": "Numeric"
        },
        {
          "defaultValue": "0",
          "precision": 18,
          "name": "SCQty",
          "saqlExpression": "case when 'isCampaignPurchase' == \"true\" then 'OrderLevel.SCQty' else 0 end",
          "scale": 5,
          "label": "SCQty",
          "type": "Numeric"
        },
        {
          "defaultValue": "0",
          "precision": 18,
          "name": "SCCQty",
          "saqlExpression": "case when 'isCampaignPurchase' == \"true\" then 'OrderLevel.SCCQty' else 0 end",
          "scale": 5,
          "label": "SCCQty",
          "type": "Numeric"
        },
        {
          "defaultValue": "0",
          "precision": 18,
          "name": "WCQty",
          "saqlExpression": "case when 'isCampaignPurchase' == \"true\" then 'OrderLevel.WCQty' else 0 end",
          "scale": 5,
          "label": "WCQty",
          "type": "Numeric"
        },
        {
          "defaultValue": "0",
          "precision": 18,
          "name": "AASpending",
          "saqlExpression": "case when 'isCampaignPurchase' == \"true\" then 'OrderLevel.AASpending' else 0 end",
          "scale": 5,
          "label": "AASpending",
          "type": "Numeric"
        },
        {
          "defaultValue": "0",
          "precision": 18,
          "name": "CleansersSpending",
          "saqlExpression": "case when 'isCampaignPurchase' == \"true\" then 'OrderLevel.CleansersSpending' else 0 end",
          "scale": 5,
          "label": "CleansersSpending",
          "type": "Numeric"
        },
        {
          "defaultValue": "0",
          "precision": 18,
          "name": "OtherCollectionSpending",
          "saqlExpression": "case when 'isCampaignPurchase' == \"true\" then 'OrderLevel.OtherCollectionSpending' else 0 end",
          "scale": 5,
          "label": "OtherCollectionSpending",
          "type": "Numeric"
        },
        {
          "defaultValue": "0",
          "precision": 18,
          "name": "PlatinumSpending",
          "saqlExpression": "case when 'isCampaignPurchase' == \"true\" then 'OrderLevel.PlatinumSpending' else 0 end",
          "scale": 5,
          "label": "PlatinumSpending",
          "type": "Numeric"
        },
        {
          "defaultValue": "0",
          "precision": 18,
          "name": "RadianceSpending",
          "saqlExpression": "case when 'isCampaignPurchase' == \"true\" then 'OrderLevel.RadianceSpending' else 0 end",
          "scale": 5,
          "label": "RadianceSpending",
          "type": "Numeric"
        },
        {
          "defaultValue": "0",
          "precision": 18,
          "name": "SCSpending",
          "saqlExpression": "case when 'isCampaignPurchase' == \"true\" then 'OrderLevel.SCSpending' else 0 end",
          "scale": 5,
          "label": "SCSpending",
          "type": "Numeric"
        },
        {
          "defaultValue": "0",
          "precision": 18,
          "name": "SCCSpending",
          "saqlExpression": "case when 'isCampaignPurchase' == \"true\" then 'OrderLevel.SCCSpending' else 0 end",
          "scale": 5,
          "label": "SCCSpending",
          "type": "Numeric"
        },
        {
          "defaultValue": "0",
          "precision": 18,
          "name": "WCSpending",
          "saqlExpression": "case when 'isCampaignPurchase' == \"true\" then 'OrderLevel.WCSpending' else 0 end",
          "scale": 5,
          "label": "WCSpending",
          "type": "Numeric"
        },
        {
          "defaultValue": "0",
          "precision": 18,
          "name": "ProductPurchased",
          "saqlExpression": "case\nwhen 'isCampaignPurchase' == \"true\" && 'isCampaignDoor' == \"true\" then\n'Transaction.Purchase'\nelse 0\nend",
          "scale": 5,
          "label": "ProductPurchased",
          "type": "Numeric"
        },
        {
          "defaultValue": "0",
          "precision": 18,
          "name": "ProductsReturned",
          "saqlExpression": "case\nwhen 'isCampaignPurchase' == \"true\" && 'isCampaignDoor' == \"true\" then\n'Transaction.Return'\nelse 0\nend",
          "scale": 5,
          "label": "ProductsReturned",
          "type": "Numeric"
        }
      ]
    }
  },
  "JoinCampaignMembersWithInteractions": {
    "action": "augment",
    "parameters": {
      "right_key": [
        "Contact.AccountId",
        "CampaignDoor__c"
      ],
      "left": "GetInteraction",
      "left_key": [
        "AccountId__c",
        "DoorIDSyreta__c"
      ],
      "right_select": [
        "CreatedDate",
        "ExpiryDate__c",
        "Campaign.ParentId",
        "Campaign.Name",
        "isRitualProgram",
        "Door.Country__c"
      ],
      "right": "JoinContactWithCampaignMember",
      "relationship": "CM",
      "operation": "LookupSingleValue"
    }
  },
  "JoinDoorSpedingToCampaignMember": {
    "action": "augment",
    "parameters": {
      "right_key": [
        "AccountId"
      ],
      "left": "JoinInteractionCountsWithCampaignMember",
      "left_key": [
        "Contact.AccountId"
      ],
      "right_select": [
        "Campaign.Door.Name",
        "CampaignDoorSpending",
        "CampaignDoorFrequency",
        "RunupSpending",
        "AAQty",
        "CleansersQty",
        "OtherCollectionQty",
        "PlatinumQty",
        "RadianceQty",
        "SCQty",
        "SCCQty",
        "WCQty",
        "AASpending",
        "CleansersSpending",
        "OtherCollectionSpending",
        "PlatinumSpending",
        "RadianceSpending",
        "SCCSpending",
        "SCSpending",
        "WCSpending",
        "ProductPurchased",
        "ProductsReturned",
        "Campaign.Campaign.ParentId",
        "Campaign.Campaign.Name",
        "Campaign.isRitualProgram",
        "Campaign.Door.Country__c"
      ],
      "right": "ClassifyOrders",
      "relationship": "Order",
      "operation": "LookupMultiValue"
    }
  },
  "ComputeDerivedKPIs": {
    "action": "computeExpression",
    "parameters": {
      "source": "JoinBANameWithContacts",
      "mergeWithSource": true,
      "computedFields": [
        {
          "name": "FirstPurchaseDate",
          "saqlExpression": "case when \n'KPI.AccountWithOrders.PickOne.FirstPurchaseDate' is not null then toDate('KPI.AccountWithOrders.PickOne.FirstPurchaseDate',\"yyyy-MM-dd\")\nend",
          "format": "yyyy-MM-dd",
          "label": "FirstPurchaseDate",
          "type": "Date",
          "isYearEndFiscalYear": true
        }
      ]
    }
  },
  "GetContact": {
    "action": "sfdcDigest",
    "parameters": {
      "fields": [
        {
          "name": "LastPurchaseDate__c"
        },
        {
          "name": "AccountId"
        },
        {
          "name": "Id"
        },
        {
          "name": "DedicatedBA__c"
        },
        {
          "name": "CollectionTypo__c"
        },
        {
          "name": "RecordTypeId"
        },
        {
          "name": "BAIdSuccessFactors__c"
        },
        {
          "name": "Name"
        }
      ],
      "object": "Contact"
    }
  },
  "GetKPIs": {
    "action": "edgemart",
    "parameters": {
      "alias": "RegisterKPIs"
    }
  },
  "JoinCampaignWithCampaignMember": {
    "action": "augment",
    "parameters": {
      "right_key": [
        "Id"
      ],
      "left": "GetCampaignMember",
      "left_key": [
        "CampaignId"
      ],
      "right_select": [
        "ParentId",
        "Name"
      ],
      "right": "GetCampaign",
      "relationship": "Campaign",
      "operation": "LookupSingleValue"
    }
  },
  "GetAccount": {
    "action": "sfdcDigest",
    "parameters": {
      "fields": [
        {
          "name": "Name"
        },
        {
          "name": "DoorIdSyreta__c"
        },
        {
          "name": "RecordTypeId"
        },
        {
          "name": "Country__c"
        }
      ],
      "object": "Account"
    }
  },
  "ComputeCampaignInteractions": {
    "action": "computeExpression",
    "parameters": {
      "source": "JoinCampaignMembersWithInteractions",
      "mergeWithSource": true,
      "computedFields": [
        {
          "defaultValue": "0",
          "precision": 18,
          "name": "CampaignInteraction",
          "saqlExpression": "case when \ndate_diff(\"day\", toDate('Date__c_sec_epoch'), toDate('CM.ExpiryDate__c_sec_epoch')) >= 0 &&\ndate_diff(\"day\", toDate('CM.CreatedDate_sec_epoch'), toDate('Date__c_sec_epoch')) >= 0\nthen 1\nelse 0\nend",
          "scale": 5,
          "label": "CampaignInteraction",
          "type": "Numeric"
        }
      ]
    }
  },
  "RegisterRitualProgramReport": {
    "action": "sfdcRegister",
    "parameters": {
      "name": "RegisterRitualProgramReport",
      "alias": "RegisterRitualProgramReport",
      "source": "ComputeRitualKPIs"
    }
  },
  "GetCampaignMember": {
    "action": "sfdcDigest",
    "parameters": {
      "fields": [
        {
          "name": "CampaignDoor__c"
        },
        {
          "name": "CampaignId"
        },
        {
          "name": "CampaignId__c"
        },
        {
          "name": "ContactId"
        },
        {
          "name": "DedicatedDoor__c"
        },
        {
          "name": "DedicatedMarket__c"
        },
        {
          "name": "Name"
        },
        {
          "name": "Country"
        },
        {
          "name": "CreatedDate"
        },
        {
          "name": "ExpiryDate__c"
        }
      ],
      "object": "CampaignMember"
    }
  },
  "ComputeRitualKPIs": {
    "action": "computeExpression",
    "parameters": {
      "source": "JoinDoorSpedingToCampaignMember",
      "mergeWithSource": true,
      "computedFields": [
        {
          "defaultValue": "0",
          "precision": 18,
          "name": "Countdown",
          "saqlExpression": "case \nwhen date_diff(\"day\", now(), toDate('ExpiryDate__c_sec_epoch')) > 0 then date_diff(\"day\", now(), toDate('ExpiryDate__c_sec_epoch')) \nelse 0\nend",
          "scale": 5,
          "label": "Countdown",
          "type": "Numeric"
        },
        {
          "defaultValue": "0",
          "precision": 18,
          "saqlExpression": "'Order.CampaignDoorFrequency'",
          "name": "PurchaseFrequency",
          "scale": 5,
          "label": "PurchaseFrequency",
          "type": "Numeric"
        },
        {
          "defaultValue": "0",
          "precision": 18,
          "name": "ACS",
          "saqlExpression": "'Order.CampaignDoorSpending'",
          "scale": 5,
          "label": "ACS",
          "type": "Numeric"
        },
        {
          "name": "AccountId",
          "saqlExpression": "'Contact.AccountId'",
          "label": "AccountId",
          "type": "Text"
        },
        {
          "defaultValue": "0",
          "precision": 18,
          "name": "ATS",
          "saqlExpression": "case when 'PurchaseFrequency' >0 \nthen 'ACS'/'PurchaseFrequency'\nelse 0\nend\n",
          "scale": 5,
          "label": "ATS",
          "type": "Numeric"
        },
        {
          "defaultValue": "0",
          "precision": 18,
          "name": "ACS6MPrio",
          "saqlExpression": "'Order.RunupSpending'",
          "scale": 5,
          "label": "ACS6MPrio",
          "type": "Numeric"
        },
        {
          "name": "Status",
          "saqlExpression": "case \nwhen 'ACS' > 'ACS6MPrio' then  \"Converted\"\nelse\ncase when date_diff(\"day\", now(), toDate('ExpiryDate__c_sec_epoch')) < 0 then \"Expired\"\nelse \"In Progress\"\nend\nend\n",
          "label": "Status",
          "type": "Text"
        },
        {
          "defaultValue": "0",
          "precision": 18,
          "saqlExpression": "('Order.PlatinumQty'+'Order.RadianceQty'+'Order.SCQty'+'Order.WCQty')/('Order.AAQty'+'Order.CleansersQty'+'Order.OtherCollectionQty'+'Order.PlatinumQty'+'Order.RadianceQty'+'Order.SCQty'+'Order.SCCQty'+'Order.WCQty')",
          "name": "LuxuryCollectionShare",
          "scale": 5,
          "label": "LuxuryCollectionShare",
          "type": "Numeric"
        },
        {
          "precision": 18,
          "name": "AATypoScore",
          "saqlExpression": "case\nwhen 'Order.AASpending' > 0 then 'Order.AAQty' + (1-(1/log(2,'Order.AASpending')))\nelse \n0 \nend",
          "scale": 10,
          "label": "AATypoScore",
          "type": "Numeric"
        },
        {
          "precision": 18,
          "saqlExpression": "case\nwhen 'Order.CleansersSpending' > 0 then 'Order.CleansersQty' + (1-(1/log(2,'Order.CleansersSpending')))\nelse \n0 \nend",
          "name": "CleansersTypoScore",
          "scale": 10,
          "label": "CleansersTypoScore",
          "type": "Numeric"
        },
        {
          "precision": 18,
          "saqlExpression": "case\nwhen 'Order.RadianceSpending' > 0 then 'Order.RadianceQty' + (1-(1/log(2,'Order.RadianceSpending')))\nelse \n0 \nend",
          "name": "RadianceTypoScore",
          "scale": 10,
          "label": "RadianceTypoScore",
          "type": "Numeric"
        },
        {
          "precision": 18,
          "saqlExpression": "case\nwhen 'Order.WCSpending' > 0 then 'Order.WCQty' + (1-(1/log(2,'Order.WCSpending')))\nelse \n0 \nend",
          "name": "WCTypoScore",
          "scale": 10,
          "label": "WCTypoScore",
          "type": "Numeric"
        },
        {
          "precision": 18,
          "name": "PlatinumTypoScore",
          "saqlExpression": "case\nwhen 'Order.PlatinumSpending' > 0 then 'Order.PlatinumQty' + (1-(1/log(2,'Order.PlatinumSpending')))\nelse \n0 \nend",
          "scale": 10,
          "label": "PlatinumTypoScore",
          "type": "Numeric"
        },
        {
          "precision": 18,
          "name": "SCCTypoScore",
          "saqlExpression": "case\nwhen 'Order.SCCSpending' > 0 then 'Order.SCCQty' + (1-(1/log(2,'Order.SCCSpending')))\nelse \n0 \nend",
          "scale": 10,
          "label": "SCCTypoScore",
          "type": "Numeric"
        },
        {
          "precision": 18,
          "name": "SCTypoScore",
          "saqlExpression": "case\nwhen 'Order.SCSpending' > 0 then 'Order.SCQty' + (1-(1/log(2,'Order.SCSpending')))\nelse \n0 \nend",
          "scale": 10,
          "label": "SCTypoScore",
          "type": "Numeric"
        },
        {
          "precision": 18,
          "name": "OtherCollectionTypoScore",
          "saqlExpression": "case\nwhen 'Order.OtherCollectionSpending' > 0 then 'Order.OtherCollectionQty' + (1-(1/log(2,'Order.OtherCollectionSpending')))\nelse \n0 \nend",
          "scale": 10,
          "label": "OtherCollectionTypoScore",
          "type": "Numeric"
        },
        {
          "defaultValue": "0",
          "precision": 18,
          "name": "ProductPurchased",
          "saqlExpression": "'Order.ProductPurchased'",
          "scale": 5,
          "label": "ProductPurchased",
          "type": "Numeric"
        },
        {
          "defaultValue": "0",
          "precision": 18,
          "name": "ProductReturned",
          "saqlExpression": "'Order.ProductsReturned'",
          "scale": 5,
          "label": "ProductReturned",
          "type": "Numeric"
        },
        {
          "name": "CollectionTypo",
          "saqlExpression": "case\nwhen 'ProductPurchased' > 0  \nthen \n\ncase\nwhen 'AATypoScore' > 0 &&\n'CleansersTypoScore'+ \n'RadianceTypoScore'+ \n'SCTypoScore'+  \n'SCCTypoScore'+ \n'PlatinumTypoScore'+ \n'WCTypoScore'+\n'OtherCollectionTypoScore' == 0\nthen \"AA Exclusive\"\nwhen 'AATypoScore' > 'CleansersTypoScore' \n&& 'AATypoScore' > 'RadianceTypoScore' \n&& 'AATypoScore' > 'SCTypoScore'  \n&& 'AATypoScore' > 'SCCTypoScore' \n&& 'AATypoScore' > 'PlatinumTypoScore' \n&& 'AATypoScore' > 'WCTypoScore'\n&& 'AATypoScore' > 'OtherCollectionTypoScore' \nthen \"AA Mainly\"\n\nwhen 'SCTypoScore' > 0 &&\n 'CleansersTypoScore'+ \n 'RadianceTypoScore'+ \n 'AATypoScore'+  \n 'SCCTypoScore'+ \n 'PlatinumTypoScore'+ \n 'WCTypoScore'+ \n 'OtherCollectionTypoScore' == 0\nthen \"SC Exclusive\"\nwhen 'SCTypoScore' > 'CleansersTypoScore' \n&& 'SCTypoScore' > 'RadianceTypoScore' \n&& 'SCTypoScore' > 'AATypoScore'  \n&& 'SCTypoScore' > 'SCCTypoScore' \n&& 'SCTypoScore' > 'PlatinumTypoScore' \n&& 'SCTypoScore' > 'WCTypoScore' \n&& 'SCTypoScore' > 'OtherCollectionTypoScore' \nthen \"SC Mainly\"\n\n\nwhen 'CleansersTypoScore' >0 && \n'SCTypoScore'+ \n 'RadianceTypoScore'+ \n 'AATypoScore'+  \n 'SCCTypoScore'+ \n 'PlatinumTypoScore'+ \n 'WCTypoScore'+\n 'OtherCollectionTypoScore'==0\nthen \"Cleansers Exclusive\"\nwhen 'CleansersTypoScore' > 'SCTypoScore' \n&& 'CleansersTypoScore' > 'RadianceTypoScore' \n&& 'CleansersTypoScore' > 'AATypoScore'  \n&& 'CleansersTypoScore' > 'SCCTypoScore' \n&& 'CleansersTypoScore' > 'PlatinumTypoScore' \n&& 'CleansersTypoScore' > 'WCTypoScore'\n&& 'CleansersTypoScore' > 'OtherCollectionTypoScore' \nthen \"Cleansers Mainly\"\n\n\nwhen 'RadianceTypoScore' > 0 &&\n'SCTypoScore' +\n'CleansersTypoScore' +\n'AATypoScore'  +\n'SCCTypoScore' +\n'PlatinumTypoScore' +\n'WCTypoScore' +\n'OtherCollectionTypoScore' == 0\nthen \"Radiance Exclusive\"\nwhen 'RadianceTypoScore' > 'SCTypoScore' \n&& 'RadianceTypoScore' > 'CleansersTypoScore' \n&& 'RadianceTypoScore' > 'AATypoScore'  \n&& 'RadianceTypoScore' > 'SCCTypoScore' \n&& 'RadianceTypoScore' > 'PlatinumTypoScore' \n&& 'RadianceTypoScore' > 'WCTypoScore' \n&& 'RadianceTypoScore' > 'OtherCollectionTypoScore' \nthen \"Radiance Mainly\"\n\n\nwhen 'SCCTypoScore' > 0 &&\n'SCTypoScore' +\n'CleansersTypoScore' +\n'AATypoScore'  +\n'RadianceTypoScore' +\n'PlatinumTypoScore' +\n'WCTypoScore' +\n'OtherCollectionTypoScore' == 0\nthen \"SCC Exclusive\"\nwhen 'SCCTypoScore' > 'SCTypoScore' \n&& 'SCCTypoScore' > 'CleansersTypoScore' \n&& 'SCCTypoScore' > 'AATypoScore'  \n&& 'SCCTypoScore' > 'RadianceTypoScore' \n&& 'SCCTypoScore' > 'PlatinumTypoScore' \n&& 'SCCTypoScore' > 'WCTypoScore' \n&& 'SCCTypoScore' > 'OtherCollectionTypoScore' \nthen \"SCC Mainly\"\n\nwhen \n 'SCTypoScore' +\n 'CleansersTypoScore' +\n 'AATypoScore'  +\n 'RadianceTypoScore' +\n 'SCCTypoScore' +\n 'WCTypoScore' +\n 'OtherCollectionTypoScore' == 0\nthen \"Platinum Exclusive\"\nwhen 'PlatinumTypoScore' > 'SCTypoScore' \n&& 'PlatinumTypoScore' > 'CleansersTypoScore' \n&& 'PlatinumTypoScore' > 'AATypoScore'  \n&& 'PlatinumTypoScore' > 'RadianceTypoScore' \n&& 'PlatinumTypoScore' > 'SCCTypoScore' \n&& 'PlatinumTypoScore' > 'WCTypoScore' \n&& 'PlatinumTypoScore' > 'OtherCollectionTypoScore' \nthen \"Platinum Mainly\"\n\nwhen 'WCTypoScore' > 0 &&\n 'SCTypoScore' +\n 'CleansersTypoScore' +\n 'AATypoScore'  +\n 'RadianceTypoScore' +\n 'SCCTypoScore' +\n 'PlatinumTypoScore' +\n 'OtherCollectionTypoScore' == 0 \nthen \"WC Exclusive\"\nwhen 'WCTypoScore' > 'SCTypoScore' \n&& 'WCTypoScore' > 'CleansersTypoScore' \n&& 'WCTypoScore' > 'AATypoScore'  \n&& 'WCTypoScore' > 'RadianceTypoScore' \n&& 'WCTypoScore' > 'SCCTypoScore' \n&& 'WCTypoScore' > 'PlatinumTypoScore' \n&& 'WCTypoScore' > 'OtherCollectionTypoScore' \nthen \"WC Mainly\"\n\nwhen 'OtherCollectionTypoScore' > 0 &&\n'SCTypoScore' +\n'CleansersTypoScore' +\n'AATypoScore'  +\n'RadianceTypoScore' +\n'SCCTypoScore' +\n'WCTypoScore'+\n'PlatinumTypoScore' == 0\nthen \"Other Collection Exclusive\"\nwhen 'OtherCollectionTypoScore' > 'SCTypoScore' \n&& 'OtherCollectionTypoScore' > 'CleansersTypoScore' \n&& 'OtherCollectionTypoScore' > 'AATypoScore'  \n&& 'OtherCollectionTypoScore' > 'RadianceTypoScore' \n&& 'OtherCollectionTypoScore' > 'SCCTypoScore' \n&& 'OtherCollectionTypoScore' > 'WCTypoScore'\n&& 'OtherCollectionTypoScore' > 'PlatinumTypoScore' \nthen \"Other Collection Mainly\"\n\nelse \"Mixed\"\nend\nend",
          "label": "CollectionTypo",
          "type": "Text"
        },
        {
          "defaultValue": "0",
          "precision": 18,
          "saqlExpression": "'ProductPurchased'/'PurchaseFrequency'",
          "name": "IPT",
          "scale": 5,
          "label": "IPT",
          "type": "Numeric"
        },
        {
          "name": "EnrollmentDate",
          "saqlExpression": "toDate('CreatedDate_sec_epoch')",
          "format": "yyyy-MM-dd",
          "label": "EnrollmentDate",
          "type": "Date",
          "isYearEndFiscalYear": true
        },
        {
          "precision": 18,
          "name": "MonthsSinceEnrollment",
          "saqlExpression": "date_diff(\"month\", toDate('CreatedDate_sec_epoch'), now()) ",
          "scale": 5,
          "label": "MonthsSinceEnrollment",
          "type": "Numeric"
        },
        {
          "name": "L0L6",
          "saqlExpression": "case when 'MonthsSinceEnrollment' < 6 then \"true\" else \"false\" end",
          "label": "L0L6",
          "type": "Text"
        },
        {
          "saqlExpression": "case when 'MonthsSinceEnrollment' >= 6 && 'MonthsSinceEnrollment' < 12 then \"true\" else \"false\" end",
          "name": "L7L12",
          "label": "L7L12",
          "type": "Text"
        },
        {
          "name": "L13L18",
          "saqlExpression": "case when 'MonthsSinceEnrollment' >= 12 && 'MonthsSinceEnrollment' < 18 then \"true\" else \"false\" end",
          "label": "L13L18",
          "type": "Text"
        },
        {
          "name": "L7L18",
          "saqlExpression": "case when 'MonthsSinceEnrollment' >= 6 && 'MonthsSinceEnrollment' < 18 then \"true\" else \"false\" end",
          "label": "L7L18",
          "type": "Text"
        },
        {
          "name": "CampaignIdMonths",
          "saqlExpression": "'CampaignId' + number_to_string('MonthsSinceEnrollment', \"00\")",
          "label": "CampaignIdMonths",
          "type": "Text"
        }
      ]
    }
  },
  "FilterBAsOnly": {
    "action": "filter",
    "parameters": {
      "source": "GetContact",
      "saqlFilter": "('RecordTypeId' == \"0123O0000003sOyQAI\") || ('RecordTypeId' == \"0123X00000049MgQAI\")"
    }
  },
  "JoinKPIsWithContacts": {
    "action": "augment",
    "parameters": {
      "right_key": [
        "AccountId"
      ],
      "left": "GetContact",
      "left_key": [
        "AccountId"
      ],
      "right_select": [
        "LuxuryCollectionShare",
        "AccountWithOrders.PickOne.FirstPurchaseDate"
      ],
      "right": "GetKPIs",
      "relationship": "KPI",
      "operation": "LookupSingleValue"
    }
  },
  "JoinCampaignDoorToOrders": {
    "action": "augment",
    "parameters": {
      "right_key": [
        "Contact.AccountId"
      ],
      "left": "GetOrders",
      "left_key": [
        "AccountId"
      ],
      "right_select": [
        "CampaignDoor__c",
        "DedicatedDoor__c",
        "Contact.Id",
        "Contact.AccountId",
        "Contact.DedicatedBA__c",
        "CreatedDate",
        "ExpiryDate__c",
        "Contact.CollectionTypo__c",
        "Contact.KPI.LuxuryCollectionShare",
        "Contact.RecordTypeId",
        "Contact.BAIdSuccessFactors__c",
        "Contact.Name",
        "Contact.BA.Name",
        "Contact.KPI.AccountWithOrders.PickOne.FirstPurchaseDate",
        "Contact.FirstPurchaseDate",
        "Door.Name",
        "Campaign.ParentId",
        "Campaign.Name",
        "isRitualProgram",
        "Door.Country__c"
      ],
      "right": "JoinContactWithCampaignMember",
      "relationship": "Campaign",
      "operation": "LookupSingleValue"
    }
  },
  "GetInteraction": {
    "action": "sfdcDigest",
    "parameters": {
      "fields": [
        {
          "name": "AccountId__c"
        },
        {
          "name": "CampaignID__c"
        },
        {
          "name": "Date__c"
        },
        {
          "name": "Id"
        },
        {
          "name": "DoorIDSyreta__c"
        }
      ],
      "object": "Interaction__c"
    }
  }
}